Analyze_trip_data
…
Here I start looking for similarities and differences among member and casual riders

Common start station trips for members

Here I create a data frame that includes common start station trips for members

trip_variables %>%
  select (start_station_name, member_casual) %>%
  group_by(start_station_name)%>%
  filter(member_casual == "member")%>%
  mutate(trips = n()) %>%
  distinct(start_station_name, .keep_all = TRUE)

## # A tibble: 714 x 3
## # Groups:   start_station_name [714]
##    start_station_name               member_casual trips
##    <chr>                            <chr>         <int>
##  1 Lake Shore Dr & Diversey Pkwy    member        10445
##  2 Marine Dr & Ainslie St           member         4951
##  3 Dearborn St & Erie St            member        17634
##  4 Wells St & Elm St                member        18256
##  5 Desplaines St & Kinzie St        member        15679
##  6 Wallace St & 35th St             member         1675
##  7 Broadway & Granville Ave         member         4713
##  8 Lake Park Ave & 56th St          member         3355
##  9 Clark St & 9th St (AMLI)         member         3593
## 10 Cottage Grove Ave & Oakwood Blvd member          925
## # ... with 704 more rows

Common end station trips for members

Here I create a data frame for common end station trips for members

 trip_variables %>%
  select (end_station_name, member_casual) %>%
  group_by(end_station_name)%>%
  filter(member_casual == "member")%>%
  mutate(trips = n()) %>%
  distinct(end_station_name, .keep_all = TRUE)

## # A tibble: 713 x 3
## # Groups:   end_station_name [713]
##    end_station_name                 member_casual trips
##    <chr>                            <chr>         <int>
##  1 Clark St & Lincoln Ave           member        14664
##  2 Sheridan Rd & Lawrence Ave       member         3550
##  3 Kingsbury St & Erie St           member        12260
##  4 State St & Van Buren St          member         3993
##  5 Cottage Grove Ave & Oakwood Blvd member          882
##  6 Broadway & Granville Ave         member         4855
##  7 Stony Island Ave & 71st St       member           80
##  8 Lake Park Ave & 56th St          member         3554
##  9 Wallace St & 35th St             member         1652
## 10 Clark St & Schiller St           member        12169
## # ... with 703 more rows

Common start station trips for casual riders

Here I create a data frame for common start station trips among casual riders

 trip_variables %>%
  select (start_station_name, member_casual)%>%
  group_by (start_station_name)%>%
  filter(member_casual == "casual")%>%
  mutate(trips = n()) %>%
  distinct(start_station_name, .keep_all= TRUE)

## # A tibble: 727 x 3
## # Groups:   start_station_name [727]
##    start_station_name              member_casual trips
##    <chr>                           <chr>         <int>
##  1 Michigan Ave & 14th St          casual         5068
##  2 Columbus Dr & Randolph St       casual        11467
##  3 Daley Center Plaza              casual         6052
##  4 Leavitt St & Division St        casual         1147
##  5 Cityfront Plaza Dr & Pioneer Ct casual         6494
##  6 Sheffield Ave & Fullerton Ave   casual         4918
##  7 Southport Ave & Wellington Ave  casual         4405
##  8 Theater on the Lake             casual        21812
##  9 Lakeview Ave & Fullerton Pkwy   casual        10840
## 10 Morgan St & Lake St             casual         6931
## # ... with 717 more rows

Common end station trips for casual riders

Here I create a data frame for common end stations trips for casual riders

trip_variables %>%
  select (end_station_name, member_casual)%>%
  group_by (end_station_name)%>%
  filter(member_casual == "casual")%>%
  mutate(trips = n()) %>%
  distinct(end_station_name, .keep_all= TRUE)

## # A tibble: 727 x 3
## # Groups:   end_station_name [727]
##    end_station_name          member_casual trips
##    <chr>                     <chr>         <int>
##  1 Michigan Ave & 14th St    casual         5075
##  2 State St & Randolph St    casual         9099
##  3 State St & Kinzie St      casual         9482
##  4 Leavitt St & Division St  casual         1016
##  5 Dearborn St & Monroe St   casual         5588
##  6 Southport Ave & Roscoe St casual         7609
##  7 Halsted St & Dickens Ave  casual         6646
##  8 Western Ave & Division St casual         1948
##  9 Broadway & Belmont Ave    casual         6870
## 10 LaSalle St & Jackson Blvd casual         2166
## # ... with 717 more rows
…
Here I create a data frame that summarizes number of trips by month

trip_variables %>%
  select(
    member_casual, 
    month) %>%
  group_by(member_casual,) %>%
  mutate( trips = n()) %>%
  distinct(
    month, 
    member_casual,
    .keep_all = TRUE
  )

## # A tibble: 24 x 3
## # Groups:   member_casual [2]
##    member_casual month   trips
##    <chr>         <chr>   <int>
##  1 member        08    2333635
##  2 casual        08    1826594
##  3 casual        09    1826594
##  4 member        09    2333635
##  5 casual        10    1826594
##  6 member        10    2333635
##  7 casual        11    1826594
##  8 member        11    2333635
##  9 member        12    2333635
## 10 casual        12    1826594
## # ... with 14 more rows
…
